{
  "title": "Items",
  "description": "List of items or groups",
  "type": "array",
  "items": {
    "type": "object",
    "title": "item",
    "headerTemplate": "{{ self.name }}",
    "required": [
      "name",
      "type"
    ],
    "oneOf": [
      {
        "$ref": "https://content-storage.googleapis.com/download/storage/v1/b/fao-maps-terriajs-schema/o/AbsIttCatalogGroup_type.json?&alt=media"
      },
      {
        "$ref": "https://content-storage.googleapis.com/download/storage/v1/b/fao-maps-terriajs-schema/o/AbsIttCatalogItem_type.json?&alt=media"
      },
      {
        "$ref": "https://content-storage.googleapis.com/download/storage/v1/b/fao-maps-terriajs-schema/o/ArcGisCatalogGroup_type.json?&alt=media"
      },
      {
        "$ref": "https://content-storage.googleapis.com/download/storage/v1/b/fao-maps-terriajs-schema/o/ArcGisMapServerCatalogItem_type.json?&alt=media"
      },
      {
        "$ref": "https://content-storage.googleapis.com/download/storage/v1/b/fao-maps-terriajs-schema/o/BingMapsCatalogItem_type.json?&alt=media"
      },
      {
        "$ref": "https://content-storage.googleapis.com/download/storage/v1/b/fao-maps-terriajs-schema/o/CatalogGroup_type.json?&alt=media"
      },
      {
        "$ref": "https://content-storage.googleapis.com/download/storage/v1/b/fao-maps-terriajs-schema/o/CkanCatalogGroup_type.json?&alt=media"
      },
      {
        "$ref": "https://content-storage.googleapis.com/download/storage/v1/b/fao-maps-terriajs-schema/o/CkanCatalogItem_type.json?&alt=media"
      },
      {
        "$ref": "https://content-storage.googleapis.com/download/storage/v1/b/fao-maps-terriajs-schema/o/CsvCatalogItem_type.json?&alt=media"
      },
      {
        "$ref": "https://content-storage.googleapis.com/download/storage/v1/b/fao-maps-terriajs-schema/o/CswCatalogGroup_type.json?&alt=media"
      },
      {
        "$ref": "https://content-storage.googleapis.com/download/storage/v1/b/fao-maps-terriajs-schema/o/CzmlCatalogItem_type.json?&alt=media"
      },
      {
        "$ref": "https://content-storage.googleapis.com/download/storage/v1/b/fao-maps-terriajs-schema/o/GeoJsonCatalogItem_type.json?&alt=media"
      },
      {
        "$ref": "https://content-storage.googleapis.com/download/storage/v1/b/fao-maps-terriajs-schema/o/GpxCatalogItem_type.json?&alt=media"
      },
      {
        "$ref": "https://content-storage.googleapis.com/download/storage/v1/b/fao-maps-terriajs-schema/o/KmlCatalogItem_type.json?&alt=media"
      },
      {
        "$ref": "https://content-storage.googleapis.com/download/storage/v1/b/fao-maps-terriajs-schema/o/MapboxMapCatalogItem_type.json?&alt=media"
      },
      {
        "$ref": "https://content-storage.googleapis.com/download/storage/v1/b/fao-maps-terriajs-schema/o/OgrCatalogItem_type.json?&alt=media"
      },
      {
        "$ref": "https://content-storage.googleapis.com/download/storage/v1/b/fao-maps-terriajs-schema/o/OpenStreetMapCatalogItem_type.json?&alt=media"
      },
      {
        "$ref": "https://content-storage.googleapis.com/download/storage/v1/b/fao-maps-terriajs-schema/o/SocrataCatalogGroup_type.json?&alt=media"
      },
      {
        "$ref": "https://content-storage.googleapis.com/download/storage/v1/b/fao-maps-terriajs-schema/o/UrthecastCatalogGroup_type.json?&alt=media"
      },
      {
        "$ref": "https://content-storage.googleapis.com/download/storage/v1/b/fao-maps-terriajs-schema/o/UrthecastCatalogItem_type.json?&alt=media"
      },
      {
        "$ref": "https://content-storage.googleapis.com/download/storage/v1/b/fao-maps-terriajs-schema/o/WebFeatureServiceCatalogGroup_type.json?&alt=media"
      },
      {
        "$ref": "https://content-storage.googleapis.com/download/storage/v1/b/fao-maps-terriajs-schema/o/WebFeatureServiceCatalogItem_type.json?&alt=media"
      },
      {
        "$ref": "https://content-storage.googleapis.com/download/storage/v1/b/fao-maps-terriajs-schema/o/WebMapServiceCatalogGroup_type.json?&alt=media"
      },
      {
        "$ref": "https://content-storage.googleapis.com/download/storage/v1/b/fao-maps-terriajs-schema/o/WebMapServiceCatalogItem_type.json?&alt=media"
      },
      {
        "$ref": "https://content-storage.googleapis.com/download/storage/v1/b/fao-maps-terriajs-schema/o/WebMapTileServiceCatalogGroup_type.json?&alt=media"
      },
      {
        "$ref": "https://content-storage.googleapis.com/download/storage/v1/b/fao-maps-terriajs-schema/o/WebMapTileServiceCatalogItem_type.json?&alt=media"
      },
      {
        "$ref": "https://content-storage.googleapis.com/download/storage/v1/b/fao-maps-terriajs-schema/o/WfsFeaturesCatalogGroup_type.json?&alt=media"
      }
    ]
  }
}